{
  "images" : [
    {
      "idiom" : "universal",
      "scale" : "1x",
      "filename" : "spa_tab_programs_lined~universal@1x.png"
    },
    {
      "idiom" : "universal",
      "scale" : "2x",
      "filename" : "spa_tab_programs_lined~universal@2x.png"
    },
    {
      "idiom" : "universal",
      "scale" : "3x",
      "filename" : "spa_tab_programs_lined~universal@3x.png"
    }
  ],
  "info" : {
    "author" : "xcode",
    "version" : 1
  }
}