{
  "info" : {
    "author" : "xcode",
    "version" : 1
  },
  "images" : [
    {
      "filename" : "spa_player_pause~universal@1x.png",
      "idiom" : "universal",
      "scale" : "1x"
    },
    {
      "filename" : "spa_player_pause~universal@2x.png",
      "idiom" : "universal",
      "scale" : "2x"
    },
    {
      "filename" : "spa_player_pause~universal@3x.png",
      "idiom" : "universal",
      "scale" : "3x"
    }
  ]
}